{
  "project_info": {
    "project_number": "669857805074",
    "project_id": "somaiv1push",
    "storage_bucket": "somaiv1push.appspot.com"
  },
  "client": [
    {
      "client_info": {
        "mobilesdk_app_id": "1:669857805074:android:0762dd604aaec8f95bb9cb",
        "android_client_info": {
          "package_name": "com.seomai_app"
        }
      },
      "oauth_client": [
        {
          "client_id": "669857805074-4ohb9uisnj9ml4jlec88euc65994linv.apps.googleusercontent.com",
          "client_type": 3
        }
      ],
      "api_key": [
        {
          "current_key": "AIzaSyCPbmTQCk1IpUbkNM0OKdVgoA-tWWbpKLI"
        }
      ],
      "services": {
        "appinvite_service": {
          "other_platform_oauth_client": [
            {
              "client_id": "669857805074-4ohb9uisnj9ml4jlec88euc65994linv.apps.googleusercontent.com",
              "client_type": 3
            }
          ]
        }
      }
    },
    {
      "client_info": {
        "mobilesdk_app_id": "1:669857805074:android:697f8f046dd2457e5bb9cb",
        "android_client_info": {
          "package_name": "tw.com.seoapp"
        }
      },
      "oauth_client": [
        {
          "client_id": "669857805074-4ohb9uisnj9ml4jlec88euc65994linv.apps.googleusercontent.com",
          "client_type": 3
        }
      ],
      "api_key": [
        {
          "current_key": "AIzaSyCPbmTQCk1IpUbkNM0OKdVgoA-tWWbpKLI"
        }
      ],
      "services": {
        "appinvite_service": {
          "other_platform_oauth_client": [
            {
              "client_id": "669857805074-4ohb9uisnj9ml4jlec88euc65994linv.apps.googleusercontent.com",
              "client_type": 3
            }
          ]
        }
      }
    }
  ],
  "configuration_version": "1"
}
